[gd_scene load_steps=2 format=3 uid="uid://bi0qpip28fmvv"]

[ext_resource type="Texture2D" uid="uid://2akl5vk6y42x" path="res://assets/sprites/planter.png" id="1_e2mp3"]

[node name="Planter" type="StaticBody2D"]

[node name="Sprite" type="Sprite2D" parent="."]
position = Vector2(0, -156)
rotation = -0.383972
scale = Vector2(1.93897, 2.52987)
skew = -0.0202428
texture = ExtResource("1_e2mp3")
flip_h = true

[node name="CollisionPolygon2D" type="CollisionPolygon2D" parent="."]
position = Vector2(0, -156)
scale = Vector2(-1, 1)
polygon = PackedVector2Array(45.098, 150.98, 219.608, -49.0196, 211.765, -101.961, -47.0588, -139.216, -213.726, 35.2941, -227.451, 107.843, -123.529, 141.177)
